solid INCACHERAINsimple
   facet normal 2.092834e-001 0.000000e+000 9.778550e-001
      outer loop
         vertex 1.705828e+000 1.000000e+000 2.212364e+000
         vertex 1.705828e+000 0.000000e+000 2.212364e+000
         vertex 3.124149e+000 0.000000e+000 1.928311e+000
      endloop
   endfacet
   facet normal 1.834308e-001 0.000000e+000 9.830326e-001
      outer loop
         vertex 1.705828e+000 1.000000e+000 2.212364e+000
         vertex 3.124149e+000 0.000000e+000 1.928311e+000
         vertex 3.124149e+000 1.000000e+000 1.928311e+000
      endloop
   endfacet
   facet normal 1.313975e-001 0.000000e+000 9.913298e-001
      outer loop
         vertex 3.124149e+000 1.000000e+000 1.928311e+000
         vertex 3.124149e+000 0.000000e+000 1.928311e+000
         vertex 4.560473e+000 0.000000e+000 1.757167e+000
      endloop
   endfacet
   facet normal 1.052168e-001 0.000000e+000 9.944493e-001
      outer loop
         vertex 3.124149e+000 1.000000e+000 1.928311e+000
         vertex 4.560473e+000 0.000000e+000 1.757167e+000
         vertex 4.560473e+000 1.000000e+000 1.757167e+000
      endloop
   endfacet
   facet normal 5.269068e-002 0.000000e+000 9.986109e-001
      outer loop
         vertex 4.560473e+000 1.000000e+000 1.757167e+000
         vertex 4.560473e+000 0.000000e+000 1.757167e+000
         vertex 6.005828e+000 0.000000e+000 1.699999e+000
      endloop
   endfacet
   facet normal 2.634534e-002 0.000000e+000 9.996529e-001
      outer loop
         vertex 4.560473e+000 1.000000e+000 1.757167e+000
         vertex 6.005828e+000 0.000000e+000 1.699999e+000
         vertex 6.005828e+000 1.000000e+000 1.699999e+000
      endloop
   endfacet
   facet normal -2.634534e-002 0.000000e+000 9.996529e-001
      outer loop
         vertex 6.005828e+000 1.000000e+000 1.699999e+000
         vertex 6.005828e+000 0.000000e+000 1.699999e+000
         vertex 7.451183e+000 0.000000e+000 1.757167e+000
      endloop
   endfacet
   facet normal -5.269068e-002 0.000000e+000 9.986109e-001
      outer loop
         vertex 6.005828e+000 1.000000e+000 1.699999e+000
         vertex 7.451183e+000 0.000000e+000 1.757167e+000
         vertex 7.451183e+000 1.000000e+000 1.757167e+000
      endloop
   endfacet
   facet normal -1.052168e-001 0.000000e+000 9.944493e-001
      outer loop
         vertex 7.451183e+000 1.000000e+000 1.757167e+000
         vertex 7.451183e+000 0.000000e+000 1.757167e+000
         vertex 8.887508e+000 0.000000e+000 1.928311e+000
      endloop
   endfacet
   facet normal -1.313975e-001 0.000000e+000 9.913298e-001
      outer loop
         vertex 7.451183e+000 1.000000e+000 1.757167e+000
         vertex 8.887508e+000 0.000000e+000 1.928311e+000
         vertex 8.887508e+000 1.000000e+000 1.928311e+000
      endloop
   endfacet
   facet normal -1.834308e-001 0.000000e+000 9.830326e-001
      outer loop
         vertex 8.887508e+000 1.000000e+000 1.928311e+000
         vertex 8.887508e+000 0.000000e+000 1.928311e+000
         vertex 1.030583e+001 0.000000e+000 2.212364e+000
      endloop
   endfacet
   facet normal -2.092834e-001 0.000000e+000 9.778550e-001
      outer loop
         vertex 8.887508e+000 1.000000e+000 1.928311e+000
         vertex 1.030583e+001 0.000000e+000 2.212364e+000
         vertex 1.030583e+001 1.000000e+000 2.212364e+000
      endloop
   endfacet
   facet normal -1.000000e+000 0.000000e+000 1.398971e-016
      outer loop
         vertex 1.030583e+001 1.000000e+000 7.873612e+000
         vertex 1.030583e+001 1.000000e+000 2.212364e+000
         vertex 1.030583e+001 0.000000e+000 7.873612e+000
      endloop
   endfacet
   facet normal -1.000000e+000 0.000000e+000 1.398971e-016
      outer loop
         vertex 1.030583e+001 0.000000e+000 7.873612e+000
         vertex 1.030583e+001 1.000000e+000 2.212364e+000
         vertex 1.030583e+001 0.000000e+000 2.212364e+000
      endloop
   endfacet
   facet normal 9.363292e-001 0.000000e+000 3.511235e-001
      outer loop
         vertex 1.172610e+001 1.000000e+000 7.291641e+000
         vertex 1.154916e+001 1.000000e+000 7.763487e+000
         vertex 1.172610e+001 -4.336809e-016 7.291641e+000
      endloop
   endfacet
   facet normal 9.363292e-001 0.000000e+000 3.511235e-001
      outer loop
         vertex 1.172610e+001 -4.336809e-016 7.291641e+000
         vertex 1.154916e+001 1.000000e+000 7.763487e+000
         vertex 1.154916e+001 -4.336809e-016 7.763487e+000
      endloop
   endfacet
   facet normal 9.038298e-001 0.000000e+000 -4.278921e-001
      outer loop
         vertex 1.152293e+001 1.000000e+000 6.720426e+000
         vertex 1.171960e+001 1.000000e+000 7.135838e+000
         vertex 1.152293e+001 -4.336809e-016 6.720426e+000
      endloop
   endfacet
   facet normal 9.038298e-001 0.000000e+000 -4.278921e-001
      outer loop
         vertex 1.152293e+001 -4.336809e-016 6.720426e+000
         vertex 1.171960e+001 1.000000e+000 7.135838e+000
         vertex 1.171960e+001 -4.336809e-016 7.135838e+000
      endloop
   endfacet
   facet normal 9.988682e-001 0.000000e+000 -4.756515e-002
      outer loop
         vertex 1.150393e+001 0.000000e+000 6.644360e+000
         vertex 1.131942e+001 0.000000e+000 2.769651e+000
         vertex 1.150393e+001 1.000000e+000 6.644360e+000
      endloop
   endfacet
   facet normal 9.988682e-001 0.000000e+000 -4.756515e-002
      outer loop
         vertex 1.150393e+001 1.000000e+000 6.644360e+000
         vertex 1.131942e+001 0.000000e+000 2.769651e+000
         vertex 1.131942e+001 1.000000e+000 2.769651e+000
      endloop
   endfacet
   facet normal -3.053689e-001 0.000000e+000 9.522341e-001
      outer loop
         vertex 1.160106e+001 1.000000e+000 2.576355e+000
         vertex 1.158011e+001 1.000000e+000 2.569642e+000
         vertex 1.160106e+001 0.000000e+000 2.576355e+000
      endloop
   endfacet
   facet normal -3.049873e-001 0.000000e+000 9.523565e-001
      outer loop
         vertex 1.160106e+001 0.000000e+000 2.576355e+000
         vertex 1.158011e+001 1.000000e+000 2.569642e+000
         vertex 1.158011e+001 0.000000e+000 2.569642e+000
      endloop
   endfacet
   facet normal 9.721156e-001 0.000000e+000 2.345024e-001
      outer loop
         vertex 1.185663e+001 -4.336809e-016 2.432834e+000
         vertex 1.198377e+001 -4.336809e-016 1.905790e+000
         vertex 1.185663e+001 1.000000e+000 2.432834e+000
      endloop
   endfacet
   facet normal 9.721156e-001 0.000000e+000 2.345024e-001
      outer loop
         vertex 1.185663e+001 1.000000e+000 2.432834e+000
         vertex 1.198377e+001 -4.336809e-016 1.905790e+000
         vertex 1.198377e+001 1.000000e+000 1.905790e+000
      endloop
   endfacet
   facet normal 2.388931e-001 0.000000e+000 -9.710459e-001
      outer loop
         vertex 1.127512e+001 1.000000e+000 7.066187e-001
         vertex 1.127512e+001 0.000000e+000 7.066187e-001
         vertex 9.791592e+000 0.000000e+000 3.615674e-001
      endloop
   endfacet
   facet normal 2.141517e-001 0.000000e+000 -9.768004e-001
      outer loop
         vertex 1.127512e+001 1.000000e+000 7.066187e-001
         vertex 9.791592e+000 0.000000e+000 3.615674e-001
         vertex 9.791592e+000 1.000000e+000 3.615674e-001
      endloop
   endfacet
   facet normal 1.643026e-001 0.000000e+000 -9.864100e-001
      outer loop
         vertex 9.791592e+000 1.000000e+000 3.615674e-001
         vertex 9.791592e+000 0.000000e+000 3.615674e-001
         vertex 8.286104e+000 0.000000e+000 1.304168e-001
      endloop
   endfacet
   facet normal 1.391950e-001 0.000000e+000 -9.902650e-001
      outer loop
         vertex 9.791592e+000 1.000000e+000 3.615674e-001
         vertex 8.286104e+000 0.000000e+000 1.304168e-001
         vertex 8.286104e+000 1.000000e+000 1.304168e-001
      endloop
   endfacet
   facet normal 8.875915e-002 0.000000e+000 -9.960531e-001
      outer loop
         vertex 8.286104e+000 1.000000e+000 1.304168e-001
         vertex 8.286104e+000 0.000000e+000 1.304168e-001
         vertex 6.767393e+000 0.000000e+000 1.450442e-002
      endloop
   endfacet
   facet normal 6.343097e-002 0.000000e+000 -9.979862e-001
      outer loop
         vertex 8.286104e+000 1.000000e+000 1.304168e-001
         vertex 6.767393e+000 0.000000e+000 1.450442e-002
         vertex 6.767393e+000 1.000000e+000 1.450442e-002
      endloop
   endfacet
   facet normal 1.270093e-002 0.000000e+000 -9.999193e-001
      outer loop
         vertex 6.767393e+000 1.000000e+000 1.450442e-002
         vertex 6.767393e+000 0.000000e+000 1.450442e-002
         vertex 5.244264e+000 0.000000e+000 1.450442e-002
      endloop
   endfacet
   facet normal -1.270093e-002 0.000000e+000 -9.999193e-001
      outer loop
         vertex 6.767393e+000 1.000000e+000 1.450442e-002
         vertex 5.244264e+000 0.000000e+000 1.450442e-002
         vertex 5.244264e+000 1.000000e+000 1.450442e-002
      endloop
   endfacet
   facet normal -6.343097e-002 0.000000e+000 -9.979862e-001
      outer loop
         vertex 5.244264e+000 1.000000e+000 1.450442e-002
         vertex 5.244264e+000 0.000000e+000 1.450442e-002
         vertex 3.725552e+000 0.000000e+000 1.304168e-001
      endloop
   endfacet
   facet normal -8.875915e-002 0.000000e+000 -9.960531e-001
      outer loop
         vertex 5.244264e+000 1.000000e+000 1.450442e-002
         vertex 3.725552e+000 0.000000e+000 1.304168e-001
         vertex 3.725552e+000 1.000000e+000 1.304168e-001
      endloop
   endfacet
   facet normal -1.391950e-001 0.000000e+000 -9.902650e-001
      outer loop
         vertex 3.725552e+000 1.000000e+000 1.304168e-001
         vertex 3.725552e+000 0.000000e+000 1.304168e-001
         vertex 2.220066e+000 0.000000e+000 3.615674e-001
      endloop
   endfacet
   facet normal -1.643026e-001 0.000000e+000 -9.864100e-001
      outer loop
         vertex 3.725552e+000 1.000000e+000 1.304168e-001
         vertex 2.220066e+000 0.000000e+000 3.615674e-001
         vertex 2.220066e+000 1.000000e+000 3.615674e-001
      endloop
   endfacet
   facet normal -2.141517e-001 0.000000e+000 -9.768004e-001
      outer loop
         vertex 2.220066e+000 1.000000e+000 3.615674e-001
         vertex 2.220066e+000 0.000000e+000 3.615674e-001
         vertex 7.365355e-001 0.000000e+000 7.066187e-001
      endloop
   endfacet
   facet normal -2.388931e-001 0.000000e+000 -9.710459e-001
      outer loop
         vertex 2.220066e+000 1.000000e+000 3.615674e-001
         vertex 7.365355e-001 0.000000e+000 7.066187e-001
         vertex 7.365355e-001 1.000000e+000 7.066187e-001
      endloop
   endfacet
   facet normal 0.000000e+000 1.000000e+000 0.000000e+000
      outer loop
         vertex 4.563415e-001 1.000000e+000 8.319802e-001
         vertex 2.273736e-001 1.000000e+000 1.036428e+000
         vertex 1.705828e+000 1.000000e+000 2.212364e+000
      endloop
   endfacet
   facet normal 0.000000e+000 1.000000e+000 0.000000e+000
      outer loop
         vertex 1.030583e+001 1.000000e+000 2.212364e+000
         vertex 1.133776e+001 1.000000e+000 2.675965e+000
         vertex 1.139745e+001 1.000000e+000 2.601458e+000
      endloop
   endfacet
   facet normal 0.000000e+000 1.000000e+000 0.000000e+000
      outer loop
         vertex 1.030583e+001 1.000000e+000 2.212364e+000
         vertex 1.139745e+001 1.000000e+000 2.601458e+000
         vertex 1.178428e+001 1.000000e+000 1.036428e+000
      endloop
   endfacet
   facet normal 0.000000e+000 1.000000e+000 0.000000e+000
      outer loop
         vertex 1.171960e+001 1.000000e+000 7.135838e+000
         vertex 1.152293e+001 1.000000e+000 6.720426e+000
         vertex 1.030583e+001 1.000000e+000 7.873612e+000
      endloop
   endfacet
   facet normal 0.000000e+000 1.000000e+000 0.000000e+000
      outer loop
         vertex 1.030583e+001 1.000000e+000 7.873612e+000
         vertex 1.152293e+001 1.000000e+000 6.720426e+000
         vertex 1.150393e+001 1.000000e+000 6.644360e+000
      endloop
   endfacet
   facet normal 0.000000e+000 1.000000e+000 0.000000e+000
      outer loop
         vertex 1.030583e+001 1.000000e+000 7.873612e+000
         vertex 1.150393e+001 1.000000e+000 6.644360e+000
         vertex 1.030583e+001 1.000000e+000 2.212364e+000
      endloop
   endfacet
   facet normal 0.000000e+000 1.000000e+000 0.000000e+000
      outer loop
         vertex 1.030583e+001 1.000000e+000 2.212364e+000
         vertex 1.150393e+001 1.000000e+000 6.644360e+000
         vertex 1.131942e+001 1.000000e+000 2.769651e+000
      endloop
   endfacet
   facet normal 0.000000e+000 1.000000e+000 0.000000e+000
      outer loop
         vertex 1.030583e+001 1.000000e+000 2.212364e+000
         vertex 1.131942e+001 1.000000e+000 2.769651e+000
         vertex 1.133776e+001 1.000000e+000 2.675965e+000
      endloop
   endfacet
   facet normal 0.000000e+000 1.000000e+000 0.000000e+000
      outer loop
         vertex 1.139745e+001 1.000000e+000 2.601458e+000
         vertex 1.148487e+001 1.000000e+000 2.563104e+000
         vertex 1.178428e+001 1.000000e+000 1.036428e+000
      endloop
   endfacet
   facet normal 0.000000e+000 1.000000e+000 0.000000e+000
      outer loop
         vertex 1.178428e+001 1.000000e+000 1.036428e+000
         vertex 1.148487e+001 1.000000e+000 2.563104e+000
         vertex 1.158011e+001 1.000000e+000 2.569642e+000
      endloop
   endfacet
   facet normal 0.000000e+000 1.000000e+000 0.000000e+000
      outer loop
         vertex 1.178428e+001 1.000000e+000 1.036428e+000
         vertex 1.158011e+001 1.000000e+000 2.569642e+000
         vertex 1.194045e+001 1.000000e+000 1.300693e+000
      endloop
   endfacet
   facet normal 0.000000e+000 1.000000e+000 0.000000e+000
      outer loop
         vertex 1.194045e+001 1.000000e+000 1.300693e+000
         vertex 1.158011e+001 1.000000e+000 2.569642e+000
         vertex 1.200910e+001 1.000000e+000 1.599876e+000
      endloop
   endfacet
   facet normal 0.000000e+000 1.000000e+000 0.000000e+000
      outer loop
         vertex 6.142073e-001 1.000000e+000 2.601458e+000
         vertex 1.705828e+000 1.000000e+000 2.212364e+000
         vertex 5.267859e-001 1.000000e+000 2.563104e+000
      endloop
   endfacet
   facet normal 0.000000e+000 1.000000e+000 0.000000e+000
      outer loop
         vertex 5.267859e-001 1.000000e+000 2.563104e+000
         vertex 1.705828e+000 1.000000e+000 2.212364e+000
         vertex 2.273736e-001 1.000000e+000 1.036428e+000
      endloop
   endfacet
   facet normal 0.000000e+000 1.000000e+000 0.000000e+000
      outer loop
         vertex 5.267859e-001 1.000000e+000 2.563104e+000
         vertex 2.273736e-001 1.000000e+000 1.036428e+000
         vertex 4.315451e-001 1.000000e+000 2.569642e+000
      endloop
   endfacet
   facet normal 0.000000e+000 1.000000e+000 0.000000e+000
      outer loop
         vertex 4.315451e-001 1.000000e+000 2.569642e+000
         vertex 2.273736e-001 1.000000e+000 1.036428e+000
         vertex 7.120566e-002 1.000000e+000 1.300693e+000
      endloop
   endfacet
   facet normal 0.000000e+000 1.000000e+000 0.000000e+000
      outer loop
         vertex 7.120566e-002 1.000000e+000 1.300693e+000
         vertex 2.553221e-003 1.000000e+000 1.599876e+000
         vertex 4.315451e-001 1.000000e+000 2.569642e+000
      endloop
   endfacet
   facet normal 0.000000e+000 1.000000e+000 0.000000e+000
      outer loop
         vertex 4.315451e-001 1.000000e+000 2.569642e+000
         vertex 2.553221e-003 1.000000e+000 1.599876e+000
         vertex 2.788473e-002 1.000000e+000 1.905790e+000
      endloop
   endfacet
   facet normal 0.000000e+000 1.000000e+000 0.000000e+000
      outer loop
         vertex 4.315451e-001 1.000000e+000 2.569642e+000
         vertex 2.788473e-002 1.000000e+000 1.905790e+000
         vertex 4.105959e-001 1.000000e+000 2.576355e+000
      endloop
   endfacet
   facet normal 0.000000e+000 1.000000e+000 0.000000e+000
      outer loop
         vertex 4.105959e-001 1.000000e+000 2.576355e+000
         vertex 2.788473e-002 1.000000e+000 1.905790e+000
         vertex 1.550228e-001 1.000000e+000 2.432834e+000
      endloop
   endfacet
   facet normal 0.000000e+000 1.000000e+000 0.000000e+000
      outer loop
         vertex 6.142073e-001 1.000000e+000 2.601458e+000
         vertex 6.738915e-001 1.000000e+000 2.675965e+000
         vertex 1.705828e+000 1.000000e+000 2.212364e+000
      endloop
   endfacet
   facet normal 0.000000e+000 1.000000e+000 0.000000e+000
      outer loop
         vertex 1.705828e+000 1.000000e+000 2.212364e+000
         vertex 6.738915e-001 1.000000e+000 2.675965e+000
         vertex 6.922399e-001 1.000000e+000 2.769651e+000
      endloop
   endfacet
   facet normal 0.000000e+000 1.000000e+000 0.000000e+000
      outer loop
         vertex 1.705828e+000 1.000000e+000 2.212364e+000
         vertex 6.922399e-001 1.000000e+000 2.769651e+000
         vertex 1.705828e+000 1.000000e+000 7.873612e+000
      endloop
   endfacet
   facet normal 0.000000e+000 1.000000e+000 0.000000e+000
      outer loop
         vertex 1.160106e+001 1.000000e+000 2.576355e+000
         vertex 1.168227e+001 1.000000e+000 2.584925e+000
         vertex 1.176014e+001 1.000000e+000 2.560318e+000
      endloop
   endfacet
   facet normal 0.000000e+000 1.000000e+000 0.000000e+000
      outer loop
         vertex 6.922399e-001 1.000000e+000 2.769651e+000
         vertex 5.077296e-001 1.000000e+000 6.644360e+000
         vertex 1.705828e+000 1.000000e+000 7.873612e+000
      endloop
   endfacet
   facet normal 0.000000e+000 1.000000e+000 0.000000e+000
      outer loop
         vertex 1.705828e+000 1.000000e+000 7.873612e+000
         vertex 5.077296e-001 1.000000e+000 6.644360e+000
         vertex 4.887222e-001 1.000000e+000 6.720426e+000
      endloop
   endfacet
   facet normal 0.000000e+000 1.000000e+000 0.000000e+000
      outer loop
         vertex 1.705828e+000 1.000000e+000 7.873612e+000
         vertex 4.887222e-001 1.000000e+000 6.720426e+000
         vertex 2.920572e-001 1.000000e+000 7.135838e+000
      endloop
   endfacet
   facet normal 0.000000e+000 1.000000e+000 0.000000e+000
      outer loop
         vertex 6.005828e+000 1.000000e+000 1.699999e+000
         vertex 5.244264e+000 1.000000e+000 1.450442e-002
         vertex 4.560473e+000 1.000000e+000 1.757167e+000
      endloop
   endfacet
   facet normal 0.000000e+000 1.000000e+000 0.000000e+000
      outer loop
         vertex 4.560473e+000 1.000000e+000 1.757167e+000
         vertex 5.244264e+000 1.000000e+000 1.450442e-002
         vertex 3.725552e+000 1.000000e+000 1.304168e-001
      endloop
   endfacet
   facet normal 0.000000e+000 1.000000e+000 0.000000e+000
      outer loop
         vertex 4.560473e+000 1.000000e+000 1.757167e+000
         vertex 3.725552e+000 1.000000e+000 1.304168e-001
         vertex 3.124149e+000 1.000000e+000 1.928311e+000
      endloop
   endfacet
   facet normal 0.000000e+000 1.000000e+000 0.000000e+000
      outer loop
         vertex 3.124149e+000 1.000000e+000 1.928311e+000
         vertex 3.725552e+000 1.000000e+000 1.304168e-001
         vertex 2.220066e+000 1.000000e+000 3.615674e-001
      endloop
   endfacet
   facet normal 0.000000e+000 1.000000e+000 0.000000e+000
      outer loop
         vertex 3.124149e+000 1.000000e+000 1.928311e+000
         vertex 2.220066e+000 1.000000e+000 3.615674e-001
         vertex 1.705828e+000 1.000000e+000 2.212364e+000
      endloop
   endfacet
   facet normal 0.000000e+000 1.000000e+000 0.000000e+000
      outer loop
         vertex 1.705828e+000 1.000000e+000 2.212364e+000
         vertex 2.220066e+000 1.000000e+000 3.615674e-001
         vertex 7.365355e-001 1.000000e+000 7.066187e-001
      endloop
   endfacet
   facet normal 0.000000e+000 1.000000e+000 0.000000e+000
      outer loop
         vertex 1.705828e+000 1.000000e+000 2.212364e+000
         vertex 7.365355e-001 1.000000e+000 7.066187e-001
         vertex 4.563415e-001 1.000000e+000 8.319802e-001
      endloop
   endfacet
   facet normal 0.000000e+000 1.000000e+000 0.000000e+000
      outer loop
         vertex 1.178428e+001 1.000000e+000 1.036428e+000
         vertex 1.155532e+001 1.000000e+000 8.319802e-001
         vertex 1.030583e+001 1.000000e+000 2.212364e+000
      endloop
   endfacet
   facet normal 0.000000e+000 1.000000e+000 0.000000e+000
      outer loop
         vertex 1.030583e+001 1.000000e+000 2.212364e+000
         vertex 1.155532e+001 1.000000e+000 8.319802e-001
         vertex 1.127512e+001 1.000000e+000 7.066187e-001
      endloop
   endfacet
   facet normal 0.000000e+000 1.000000e+000 0.000000e+000
      outer loop
         vertex 1.030583e+001 1.000000e+000 2.212364e+000
         vertex 1.127512e+001 1.000000e+000 7.066187e-001
         vertex 8.887508e+000 1.000000e+000 1.928311e+000
      endloop
   endfacet
   facet normal 0.000000e+000 1.000000e+000 0.000000e+000
      outer loop
         vertex 8.887508e+000 1.000000e+000 1.928311e+000
         vertex 1.127512e+001 1.000000e+000 7.066187e-001
         vertex 9.791592e+000 1.000000e+000 3.615674e-001
      endloop
   endfacet
   facet normal 0.000000e+000 1.000000e+000 0.000000e+000
      outer loop
         vertex 8.887508e+000 1.000000e+000 1.928311e+000
         vertex 9.791592e+000 1.000000e+000 3.615674e-001
         vertex 7.451183e+000 1.000000e+000 1.757167e+000
      endloop
   endfacet
   facet normal 0.000000e+000 1.000000e+000 0.000000e+000
      outer loop
         vertex 7.451183e+000 1.000000e+000 1.757167e+000
         vertex 9.791592e+000 1.000000e+000 3.615674e-001
         vertex 8.286104e+000 1.000000e+000 1.304168e-001
      endloop
   endfacet
   facet normal 0.000000e+000 1.000000e+000 0.000000e+000
      outer loop
         vertex 7.451183e+000 1.000000e+000 1.757167e+000
         vertex 8.286104e+000 1.000000e+000 1.304168e-001
         vertex 6.005828e+000 1.000000e+000 1.699999e+000
      endloop
   endfacet
   facet normal 0.000000e+000 1.000000e+000 0.000000e+000
      outer loop
         vertex 6.005828e+000 1.000000e+000 1.699999e+000
         vertex 8.286104e+000 1.000000e+000 1.304168e-001
         vertex 6.767393e+000 1.000000e+000 1.450442e-002
      endloop
   endfacet
   facet normal 0.000000e+000 1.000000e+000 0.000000e+000
      outer loop
         vertex 6.005828e+000 1.000000e+000 1.699999e+000
         vertex 6.767393e+000 1.000000e+000 1.450442e-002
         vertex 5.244264e+000 1.000000e+000 1.450442e-002
      endloop
   endfacet
   facet normal 0.000000e+000 1.000000e+000 0.000000e+000
      outer loop
         vertex 1.200910e+001 1.000000e+000 1.599876e+000
         vertex 1.158011e+001 1.000000e+000 2.569642e+000
         vertex 1.198377e+001 1.000000e+000 1.905790e+000
      endloop
   endfacet
   facet normal 0.000000e+000 1.000000e+000 0.000000e+000
      outer loop
         vertex 1.198377e+001 1.000000e+000 1.905790e+000
         vertex 1.158011e+001 1.000000e+000 2.569642e+000
         vertex 1.160106e+001 1.000000e+000 2.576355e+000
      endloop
   endfacet
   facet normal 0.000000e+000 1.000000e+000 0.000000e+000
      outer loop
         vertex 1.198377e+001 1.000000e+000 1.905790e+000
         vertex 1.160106e+001 1.000000e+000 2.576355e+000
         vertex 1.185663e+001 1.000000e+000 2.432834e+000
      endloop
   endfacet
   facet normal 0.000000e+000 1.000000e+000 0.000000e+000
      outer loop
         vertex 1.185663e+001 1.000000e+000 2.432834e+000
         vertex 1.160106e+001 1.000000e+000 2.576355e+000
         vertex 1.176014e+001 1.000000e+000 2.560318e+000
      endloop
   endfacet
   facet normal 0.000000e+000 1.000000e+000 0.000000e+000
      outer loop
         vertex 1.185663e+001 1.000000e+000 2.432834e+000
         vertex 1.176014e+001 1.000000e+000 2.560318e+000
         vertex 1.182168e+001 1.000000e+000 2.506638e+000
      endloop
   endfacet
   facet normal 0.000000e+000 1.000000e+000 0.000000e+000
      outer loop
         vertex 1.550228e-001 1.000000e+000 2.432834e+000
         vertex 1.899768e-001 1.000000e+000 2.506638e+000
         vertex 4.105959e-001 1.000000e+000 2.576355e+000
      endloop
   endfacet
   facet normal 0.000000e+000 1.000000e+000 0.000000e+000
      outer loop
         vertex 4.105959e-001 1.000000e+000 2.576355e+000
         vertex 1.899768e-001 1.000000e+000 2.506638e+000
         vertex 2.515172e-001 1.000000e+000 2.560318e+000
      endloop
   endfacet
   facet normal 0.000000e+000 1.000000e+000 0.000000e+000
      outer loop
         vertex 4.105959e-001 1.000000e+000 2.576355e+000
         vertex 2.515172e-001 1.000000e+000 2.560318e+000
         vertex 3.293841e-001 1.000000e+000 2.584925e+000
      endloop
   endfacet
   facet normal 0.000000e+000 1.000000e+000 0.000000e+000
      outer loop
         vertex 4.624994e-001 1.000000e+000 7.763487e+000
         vertex 5.912031e-001 1.000000e+000 8.002059e+000
         vertex 1.705828e+000 1.000000e+000 7.873612e+000
      endloop
   endfacet
   facet normal 0.000000e+000 1.000000e+000 0.000000e+000
      outer loop
         vertex 1.705828e+000 1.000000e+000 7.873612e+000
         vertex 5.912031e-001 1.000000e+000 8.002059e+000
         vertex 7.792516e-001 1.000000e+000 8.197299e+000
      endloop
   endfacet
   facet normal 0.000000e+000 1.000000e+000 0.000000e+000
      outer loop
         vertex 1.099883e+001 1.000000e+000 8.334862e+000
         vertex 1.123240e+001 1.000000e+000 8.197299e+000
         vertex 1.030583e+001 1.000000e+000 7.873612e+000
      endloop
   endfacet
   facet normal 0.000000e+000 1.000000e+000 0.000000e+000
      outer loop
         vertex 1.030583e+001 1.000000e+000 7.873612e+000
         vertex 1.123240e+001 1.000000e+000 8.197299e+000
         vertex 1.142045e+001 1.000000e+000 8.002059e+000
      endloop
   endfacet
   facet normal 0.000000e+000 1.000000e+000 0.000000e+000
      outer loop
         vertex 2.920572e-001 1.000000e+000 7.135838e+000
         vertex 2.729967e-001 1.000000e+000 7.213079e+000
         vertex 1.705828e+000 1.000000e+000 7.873612e+000
      endloop
   endfacet
   facet normal 0.000000e+000 1.000000e+000 0.000000e+000
      outer loop
         vertex 1.705828e+000 1.000000e+000 7.873612e+000
         vertex 2.729967e-001 1.000000e+000 7.213079e+000
         vertex 2.855575e-001 1.000000e+000 7.291641e+000
      endloop
   endfacet
   facet normal 0.000000e+000 1.000000e+000 0.000000e+000
      outer loop
         vertex 1.705828e+000 1.000000e+000 7.873612e+000
         vertex 2.855575e-001 1.000000e+000 7.291641e+000
         vertex 4.624994e-001 1.000000e+000 7.763487e+000
      endloop
   endfacet
   facet normal 0.000000e+000 1.000000e+000 0.000000e+000
      outer loop
         vertex 1.173866e+001 1.000000e+000 7.213079e+000
         vertex 1.171960e+001 1.000000e+000 7.135838e+000
         vertex 1.172610e+001 1.000000e+000 7.291641e+000
      endloop
   endfacet
   facet normal 0.000000e+000 1.000000e+000 0.000000e+000
      outer loop
         vertex 1.172610e+001 1.000000e+000 7.291641e+000
         vertex 1.171960e+001 1.000000e+000 7.135838e+000
         vertex 1.030583e+001 1.000000e+000 7.873612e+000
      endloop
   endfacet
   facet normal 0.000000e+000 1.000000e+000 0.000000e+000
      outer loop
         vertex 1.172610e+001 1.000000e+000 7.291641e+000
         vertex 1.030583e+001 1.000000e+000 7.873612e+000
         vertex 1.154916e+001 1.000000e+000 7.763487e+000
      endloop
   endfacet
   facet normal 0.000000e+000 1.000000e+000 0.000000e+000
      outer loop
         vertex 1.154916e+001 1.000000e+000 7.763487e+000
         vertex 1.030583e+001 1.000000e+000 7.873612e+000
         vertex 1.142045e+001 1.000000e+000 8.002059e+000
      endloop
   endfacet
   facet normal 0.000000e+000 1.000000e+000 0.000000e+000
      outer loop
         vertex 1.036508e+001 1.000000e+000 8.109708e+000
         vertex 1.052879e+001 1.000000e+000 8.289845e+000
         vertex 1.030583e+001 1.000000e+000 7.873612e+000
      endloop
   endfacet
   facet normal 0.000000e+000 1.000000e+000 0.000000e+000
      outer loop
         vertex 1.030583e+001 1.000000e+000 7.873612e+000
         vertex 1.052879e+001 1.000000e+000 8.289845e+000
         vertex 1.075816e+001 1.000000e+000 8.371335e+000
      endloop
   endfacet
   facet normal 0.000000e+000 1.000000e+000 0.000000e+000
      outer loop
         vertex 1.030583e+001 1.000000e+000 7.873612e+000
         vertex 1.075816e+001 1.000000e+000 8.371335e+000
         vertex 1.099883e+001 1.000000e+000 8.334862e+000
      endloop
   endfacet
   facet normal 0.000000e+000 1.000000e+000 0.000000e+000
      outer loop
         vertex 1.482866e+000 1.000000e+000 8.289845e+000
         vertex 1.646577e+000 1.000000e+000 8.109708e+000
         vertex 1.253495e+000 1.000000e+000 8.371335e+000
      endloop
   endfacet
   facet normal 0.000000e+000 1.000000e+000 0.000000e+000
      outer loop
         vertex 1.253495e+000 1.000000e+000 8.371335e+000
         vertex 1.646577e+000 1.000000e+000 8.109708e+000
         vertex 1.705828e+000 1.000000e+000 7.873612e+000
      endloop
   endfacet
   facet normal 0.000000e+000 1.000000e+000 0.000000e+000
      outer loop
         vertex 1.253495e+000 1.000000e+000 8.371335e+000
         vertex 1.705828e+000 1.000000e+000 7.873612e+000
         vertex 1.012828e+000 1.000000e+000 8.334862e+000
      endloop
   endfacet
   facet normal 0.000000e+000 1.000000e+000 0.000000e+000
      outer loop
         vertex 1.012828e+000 1.000000e+000 8.334862e+000
         vertex 1.705828e+000 1.000000e+000 7.873612e+000
         vertex 7.792516e-001 1.000000e+000 8.197299e+000
      endloop
   endfacet
   facet normal 0.000000e+000 -1.000000e+000 0.000000e+000
      outer loop
         vertex 1.155532e+001 0.000000e+000 8.319802e-001
         vertex 1.178428e+001 0.000000e+000 1.036428e+000
         vertex 1.030583e+001 0.000000e+000 2.212364e+000
      endloop
   endfacet
   facet normal 0.000000e+000 -1.000000e+000 0.000000e+000
      outer loop
         vertex 1.705828e+000 0.000000e+000 2.212364e+000
         vertex 7.365355e-001 0.000000e+000 7.066187e-001
         vertex 3.124149e+000 0.000000e+000 1.928311e+000
      endloop
   endfacet
   facet normal 0.000000e+000 -1.000000e+000 0.000000e+000
      outer loop
         vertex 3.124149e+000 0.000000e+000 1.928311e+000
         vertex 7.365355e-001 0.000000e+000 7.066187e-001
         vertex 2.220066e+000 0.000000e+000 3.615674e-001
      endloop
   endfacet
   facet normal 0.000000e+000 -1.000000e+000 0.000000e+000
      outer loop
         vertex 3.124149e+000 0.000000e+000 1.928311e+000
         vertex 2.220066e+000 0.000000e+000 3.615674e-001
         vertex 4.560473e+000 0.000000e+000 1.757167e+000
      endloop
   endfacet
   facet normal 0.000000e+000 -1.000000e+000 0.000000e+000
      outer loop
         vertex 1.705828e+000 0.000000e+000 2.212364e+000
         vertex 6.738915e-001 0.000000e+000 2.675965e+000
         vertex 6.142073e-001 0.000000e+000 2.601458e+000
      endloop
   endfacet
   facet normal 0.000000e+000 -1.000000e+000 0.000000e+000
      outer loop
         vertex 1.139745e+001 0.000000e+000 2.601458e+000
         vertex 1.030583e+001 0.000000e+000 2.212364e+000
         vertex 1.148487e+001 0.000000e+000 2.563104e+000
      endloop
   endfacet
   facet normal 0.000000e+000 -1.000000e+000 0.000000e+000
      outer loop
         vertex 1.148487e+001 0.000000e+000 2.563104e+000
         vertex 1.030583e+001 0.000000e+000 2.212364e+000
         vertex 1.178428e+001 0.000000e+000 1.036428e+000
      endloop
   endfacet
   facet normal 0.000000e+000 -1.000000e+000 0.000000e+000
      outer loop
         vertex 1.148487e+001 0.000000e+000 2.563104e+000
         vertex 1.178428e+001 0.000000e+000 1.036428e+000
         vertex 1.158011e+001 0.000000e+000 2.569642e+000
      endloop
   endfacet
   facet normal 0.000000e+000 -1.000000e+000 0.000000e+000
      outer loop
         vertex 1.158011e+001 0.000000e+000 2.569642e+000
         vertex 1.178428e+001 0.000000e+000 1.036428e+000
         vertex 1.194045e+001 0.000000e+000 1.300693e+000
      endloop
   endfacet
   facet normal 0.000000e+000 -1.000000e+000 0.000000e+000
      outer loop
         vertex 1.194045e+001 0.000000e+000 1.300693e+000
         vertex 1.200910e+001 0.000000e+000 1.599876e+000
         vertex 1.158011e+001 0.000000e+000 2.569642e+000
      endloop
   endfacet
   facet normal 0.000000e+000 -1.000000e+000 0.000000e+000
      outer loop
         vertex 1.158011e+001 0.000000e+000 2.569642e+000
         vertex 1.200910e+001 0.000000e+000 1.599876e+000
         vertex 1.198377e+001 0.000000e+000 1.905790e+000
      endloop
   endfacet
   facet normal 0.000000e+000 -1.000000e+000 0.000000e+000
      outer loop
         vertex 1.158011e+001 0.000000e+000 2.569642e+000
         vertex 1.198377e+001 0.000000e+000 1.905790e+000
         vertex 1.160106e+001 0.000000e+000 2.576355e+000
      endloop
   endfacet
   facet normal 0.000000e+000 -1.000000e+000 0.000000e+000
      outer loop
         vertex 1.160106e+001 0.000000e+000 2.576355e+000
         vertex 1.198377e+001 0.000000e+000 1.905790e+000
         vertex 1.185663e+001 0.000000e+000 2.432834e+000
      endloop
   endfacet
   facet normal 0.000000e+000 -1.000000e+000 0.000000e+000
      outer loop
         vertex 1.139745e+001 0.000000e+000 2.601458e+000
         vertex 1.133776e+001 0.000000e+000 2.675965e+000
         vertex 1.030583e+001 0.000000e+000 2.212364e+000
      endloop
   endfacet
   facet normal 0.000000e+000 -1.000000e+000 0.000000e+000
      outer loop
         vertex 1.030583e+001 0.000000e+000 2.212364e+000
         vertex 1.133776e+001 0.000000e+000 2.675965e+000
         vertex 1.131942e+001 0.000000e+000 2.769651e+000
      endloop
   endfacet
   facet normal 0.000000e+000 -1.000000e+000 0.000000e+000
      outer loop
         vertex 1.030583e+001 0.000000e+000 2.212364e+000
         vertex 1.131942e+001 0.000000e+000 2.769651e+000
         vertex 1.030583e+001 0.000000e+000 7.873612e+000
      endloop
   endfacet
   facet normal 0.000000e+000 -1.000000e+000 0.000000e+000
      outer loop
         vertex 6.142073e-001 0.000000e+000 2.601458e+000
         vertex 2.273736e-001 0.000000e+000 1.036428e+000
         vertex 1.705828e+000 0.000000e+000 2.212364e+000
      endloop
   endfacet
   facet normal 0.000000e+000 -1.000000e+000 0.000000e+000
      outer loop
         vertex 1.705828e+000 0.000000e+000 2.212364e+000
         vertex 2.273736e-001 0.000000e+000 1.036428e+000
         vertex 4.563415e-001 0.000000e+000 8.319802e-001
      endloop
   endfacet
   facet normal 0.000000e+000 -1.000000e+000 0.000000e+000
      outer loop
         vertex 1.705828e+000 0.000000e+000 2.212364e+000
         vertex 4.563415e-001 0.000000e+000 8.319802e-001
         vertex 7.365355e-001 0.000000e+000 7.066187e-001
      endloop
   endfacet
   facet normal 0.000000e+000 -1.000000e+000 0.000000e+000
      outer loop
         vertex 1.131942e+001 0.000000e+000 2.769651e+000
         vertex 1.150393e+001 0.000000e+000 6.644360e+000
         vertex 1.030583e+001 0.000000e+000 7.873612e+000
      endloop
   endfacet
   facet normal 0.000000e+000 -1.000000e+000 0.000000e+000
      outer loop
         vertex 1.030583e+001 0.000000e+000 7.873612e+000
         vertex 1.150393e+001 0.000000e+000 6.644360e+000
         vertex 1.152293e+001 0.000000e+000 6.720426e+000
      endloop
   endfacet
   facet normal 0.000000e+000 -1.000000e+000 0.000000e+000
      outer loop
         vertex 1.030583e+001 0.000000e+000 7.873612e+000
         vertex 1.152293e+001 0.000000e+000 6.720426e+000
         vertex 1.171960e+001 0.000000e+000 7.135838e+000
      endloop
   endfacet
   facet normal 0.000000e+000 -1.000000e+000 0.000000e+000
      outer loop
         vertex 2.220066e+000 0.000000e+000 3.615674e-001
         vertex 3.725552e+000 0.000000e+000 1.304168e-001
         vertex 4.560473e+000 0.000000e+000 1.757167e+000
      endloop
   endfacet
   facet normal 0.000000e+000 -1.000000e+000 0.000000e+000
      outer loop
         vertex 4.560473e+000 0.000000e+000 1.757167e+000
         vertex 3.725552e+000 0.000000e+000 1.304168e-001
         vertex 5.244264e+000 0.000000e+000 1.450442e-002
      endloop
   endfacet
   facet normal 0.000000e+000 -1.000000e+000 0.000000e+000
      outer loop
         vertex 4.560473e+000 0.000000e+000 1.757167e+000
         vertex 5.244264e+000 0.000000e+000 1.450442e-002
         vertex 6.005828e+000 0.000000e+000 1.699999e+000
      endloop
   endfacet
   facet normal 0.000000e+000 -1.000000e+000 0.000000e+000
      outer loop
         vertex 6.005828e+000 0.000000e+000 1.699999e+000
         vertex 5.244264e+000 0.000000e+000 1.450442e-002
         vertex 6.767393e+000 0.000000e+000 1.450442e-002
      endloop
   endfacet
   facet normal 0.000000e+000 -1.000000e+000 0.000000e+000
      outer loop
         vertex 6.005828e+000 0.000000e+000 1.699999e+000
         vertex 6.767393e+000 0.000000e+000 1.450442e-002
         vertex 7.451183e+000 0.000000e+000 1.757167e+000
      endloop
   endfacet
   facet normal 0.000000e+000 -1.000000e+000 0.000000e+000
      outer loop
         vertex 7.451183e+000 0.000000e+000 1.757167e+000
         vertex 6.767393e+000 0.000000e+000 1.450442e-002
         vertex 8.286104e+000 0.000000e+000 1.304168e-001
      endloop
   endfacet
   facet normal 0.000000e+000 -1.000000e+000 0.000000e+000
      outer loop
         vertex 7.451183e+000 0.000000e+000 1.757167e+000
         vertex 8.286104e+000 0.000000e+000 1.304168e-001
         vertex 8.887508e+000 0.000000e+000 1.928311e+000
      endloop
   endfacet
   facet normal 0.000000e+000 -1.000000e+000 0.000000e+000
      outer loop
         vertex 8.887508e+000 0.000000e+000 1.928311e+000
         vertex 8.286104e+000 0.000000e+000 1.304168e-001
         vertex 9.791592e+000 0.000000e+000 3.615674e-001
      endloop
   endfacet
   facet normal 0.000000e+000 -1.000000e+000 0.000000e+000
      outer loop
         vertex 8.887508e+000 0.000000e+000 1.928311e+000
         vertex 9.791592e+000 0.000000e+000 3.615674e-001
         vertex 1.030583e+001 0.000000e+000 2.212364e+000
      endloop
   endfacet
   facet normal 0.000000e+000 -1.000000e+000 0.000000e+000
      outer loop
         vertex 1.030583e+001 0.000000e+000 2.212364e+000
         vertex 9.791592e+000 0.000000e+000 3.615674e-001
         vertex 1.127512e+001 0.000000e+000 7.066187e-001
      endloop
   endfacet
   facet normal 0.000000e+000 -1.000000e+000 0.000000e+000
      outer loop
         vertex 1.030583e+001 0.000000e+000 2.212364e+000
         vertex 1.127512e+001 0.000000e+000 7.066187e-001
         vertex 1.155532e+001 0.000000e+000 8.319802e-001
      endloop
   endfacet
   facet normal 0.000000e+000 -1.000000e+000 0.000000e+000
      outer loop
         vertex 2.920572e-001 0.000000e+000 7.135838e+000
         vertex 4.887222e-001 0.000000e+000 6.720426e+000
         vertex 1.705828e+000 0.000000e+000 7.873612e+000
      endloop
   endfacet
   facet normal 0.000000e+000 -1.000000e+000 0.000000e+000
      outer loop
         vertex 1.705828e+000 0.000000e+000 7.873612e+000
         vertex 4.887222e-001 0.000000e+000 6.720426e+000
         vertex 5.077296e-001 0.000000e+000 6.644360e+000
      endloop
   endfacet
   facet normal 0.000000e+000 -1.000000e+000 0.000000e+000
      outer loop
         vertex 1.705828e+000 0.000000e+000 7.873612e+000
         vertex 5.077296e-001 0.000000e+000 6.644360e+000
         vertex 1.705828e+000 0.000000e+000 2.212364e+000
      endloop
   endfacet
   facet normal 0.000000e+000 -1.000000e+000 0.000000e+000
      outer loop
         vertex 1.705828e+000 0.000000e+000 2.212364e+000
         vertex 5.077296e-001 0.000000e+000 6.644360e+000
         vertex 6.922399e-001 0.000000e+000 2.769651e+000
      endloop
   endfacet
   facet normal 0.000000e+000 -1.000000e+000 0.000000e+000
      outer loop
         vertex 1.705828e+000 0.000000e+000 2.212364e+000
         vertex 6.922399e-001 0.000000e+000 2.769651e+000
         vertex 6.738915e-001 0.000000e+000 2.675965e+000
      endloop
   endfacet
   facet normal 0.000000e+000 -1.000000e+000 0.000000e+000
      outer loop
         vertex 6.142073e-001 0.000000e+000 2.601458e+000
         vertex 5.267859e-001 0.000000e+000 2.563104e+000
         vertex 2.273736e-001 0.000000e+000 1.036428e+000
      endloop
   endfacet
   facet normal 0.000000e+000 -1.000000e+000 0.000000e+000
      outer loop
         vertex 2.273736e-001 0.000000e+000 1.036428e+000
         vertex 5.267859e-001 0.000000e+000 2.563104e+000
         vertex 4.315451e-001 0.000000e+000 2.569642e+000
      endloop
   endfacet
   facet normal 0.000000e+000 -1.000000e+000 0.000000e+000
      outer loop
         vertex 2.273736e-001 0.000000e+000 1.036428e+000
         vertex 4.315451e-001 0.000000e+000 2.569642e+000
         vertex 7.120566e-002 0.000000e+000 1.300693e+000
      endloop
   endfacet
   facet normal 0.000000e+000 -1.000000e+000 0.000000e+000
      outer loop
         vertex 7.120566e-002 0.000000e+000 1.300693e+000
         vertex 4.315451e-001 0.000000e+000 2.569642e+000
         vertex 2.553221e-003 0.000000e+000 1.599876e+000
      endloop
   endfacet
   facet normal 0.000000e+000 -1.000000e+000 0.000000e+000
      outer loop
         vertex 1.185663e+001 0.000000e+000 2.432834e+000
         vertex 1.182168e+001 0.000000e+000 2.506638e+000
         vertex 1.160106e+001 0.000000e+000 2.576355e+000
      endloop
   endfacet
   facet normal 0.000000e+000 -1.000000e+000 0.000000e+000
      outer loop
         vertex 1.160106e+001 0.000000e+000 2.576355e+000
         vertex 1.182168e+001 0.000000e+000 2.506638e+000
         vertex 1.176014e+001 0.000000e+000 2.560318e+000
      endloop
   endfacet
   facet normal 0.000000e+000 -1.000000e+000 0.000000e+000
      outer loop
         vertex 1.160106e+001 0.000000e+000 2.576355e+000
         vertex 1.176014e+001 0.000000e+000 2.560318e+000
         vertex 1.168227e+001 0.000000e+000 2.584925e+000
      endloop
   endfacet
   facet normal 0.000000e+000 -1.000000e+000 0.000000e+000
      outer loop
         vertex 1.123240e+001 0.000000e+000 8.197299e+000
         vertex 1.030583e+001 0.000000e+000 7.873612e+000
         vertex 1.142045e+001 0.000000e+000 8.002059e+000
      endloop
   endfacet
   facet normal 0.000000e+000 -1.000000e+000 0.000000e+000
      outer loop
         vertex 1.142045e+001 0.000000e+000 8.002059e+000
         vertex 1.030583e+001 0.000000e+000 7.873612e+000
         vertex 1.154916e+001 0.000000e+000 7.763487e+000
      endloop
   endfacet
   facet normal 0.000000e+000 -1.000000e+000 0.000000e+000
      outer loop
         vertex 4.105959e-001 0.000000e+000 2.576355e+000
         vertex 3.293841e-001 0.000000e+000 2.584925e+000
         vertex 2.515172e-001 0.000000e+000 2.560318e+000
      endloop
   endfacet
   facet normal 0.000000e+000 -1.000000e+000 0.000000e+000
      outer loop
         vertex 1.171960e+001 0.000000e+000 7.135838e+000
         vertex 1.173866e+001 0.000000e+000 7.213079e+000
         vertex 1.030583e+001 0.000000e+000 7.873612e+000
      endloop
   endfacet
   facet normal 0.000000e+000 -1.000000e+000 0.000000e+000
      outer loop
         vertex 1.030583e+001 0.000000e+000 7.873612e+000
         vertex 1.173866e+001 0.000000e+000 7.213079e+000
         vertex 1.172610e+001 0.000000e+000 7.291641e+000
      endloop
   endfacet
   facet normal 0.000000e+000 -1.000000e+000 0.000000e+000
      outer loop
         vertex 1.030583e+001 0.000000e+000 7.873612e+000
         vertex 1.172610e+001 0.000000e+000 7.291641e+000
         vertex 1.154916e+001 0.000000e+000 7.763487e+000
      endloop
   endfacet
   facet normal 0.000000e+000 -1.000000e+000 0.000000e+000
      outer loop
         vertex 7.792516e-001 0.000000e+000 8.197299e+000
         vertex 5.912031e-001 0.000000e+000 8.002059e+000
         vertex 1.705828e+000 0.000000e+000 7.873612e+000
      endloop
   endfacet
   facet normal 0.000000e+000 -1.000000e+000 0.000000e+000
      outer loop
         vertex 2.553221e-003 0.000000e+000 1.599876e+000
         vertex 4.315451e-001 0.000000e+000 2.569642e+000
         vertex 2.788473e-002 0.000000e+000 1.905790e+000
      endloop
   endfacet
   facet normal 0.000000e+000 -1.000000e+000 0.000000e+000
      outer loop
         vertex 2.788473e-002 0.000000e+000 1.905790e+000
         vertex 4.315451e-001 0.000000e+000 2.569642e+000
         vertex 4.105959e-001 0.000000e+000 2.576355e+000
      endloop
   endfacet
   facet normal 0.000000e+000 -1.000000e+000 0.000000e+000
      outer loop
         vertex 2.788473e-002 0.000000e+000 1.905790e+000
         vertex 4.105959e-001 0.000000e+000 2.576355e+000
         vertex 1.550228e-001 0.000000e+000 2.432834e+000
      endloop
   endfacet
   facet normal 0.000000e+000 -1.000000e+000 0.000000e+000
      outer loop
         vertex 1.550228e-001 0.000000e+000 2.432834e+000
         vertex 4.105959e-001 0.000000e+000 2.576355e+000
         vertex 2.515172e-001 0.000000e+000 2.560318e+000
      endloop
   endfacet
   facet normal 0.000000e+000 -1.000000e+000 0.000000e+000
      outer loop
         vertex 1.550228e-001 0.000000e+000 2.432834e+000
         vertex 2.515172e-001 0.000000e+000 2.560318e+000
         vertex 1.899768e-001 0.000000e+000 2.506638e+000
      endloop
   endfacet
   facet normal 0.000000e+000 -1.000000e+000 0.000000e+000
      outer loop
         vertex 1.052879e+001 0.000000e+000 8.289845e+000
         vertex 1.036508e+001 0.000000e+000 8.109708e+000
         vertex 1.075816e+001 0.000000e+000 8.371335e+000
      endloop
   endfacet
   facet normal 0.000000e+000 -1.000000e+000 0.000000e+000
      outer loop
         vertex 1.075816e+001 0.000000e+000 8.371335e+000
         vertex 1.036508e+001 0.000000e+000 8.109708e+000
         vertex 1.030583e+001 0.000000e+000 7.873612e+000
      endloop
   endfacet
   facet normal 0.000000e+000 -1.000000e+000 0.000000e+000
      outer loop
         vertex 1.075816e+001 0.000000e+000 8.371335e+000
         vertex 1.030583e+001 0.000000e+000 7.873612e+000
         vertex 1.099883e+001 0.000000e+000 8.334862e+000
      endloop
   endfacet
   facet normal 0.000000e+000 -1.000000e+000 0.000000e+000
      outer loop
         vertex 1.099883e+001 0.000000e+000 8.334862e+000
         vertex 1.030583e+001 0.000000e+000 7.873612e+000
         vertex 1.123240e+001 0.000000e+000 8.197299e+000
      endloop
   endfacet
   facet normal 0.000000e+000 -1.000000e+000 0.000000e+000
      outer loop
         vertex 7.792516e-001 0.000000e+000 8.197299e+000
         vertex 1.705828e+000 0.000000e+000 7.873612e+000
         vertex 1.012828e+000 0.000000e+000 8.334862e+000
      endloop
   endfacet
   facet normal 0.000000e+000 -1.000000e+000 0.000000e+000
      outer loop
         vertex 2.729967e-001 0.000000e+000 7.213079e+000
         vertex 2.920572e-001 0.000000e+000 7.135838e+000
         vertex 2.855575e-001 0.000000e+000 7.291641e+000
      endloop
   endfacet
   facet normal 0.000000e+000 -1.000000e+000 0.000000e+000
      outer loop
         vertex 2.855575e-001 0.000000e+000 7.291641e+000
         vertex 2.920572e-001 0.000000e+000 7.135838e+000
         vertex 1.705828e+000 0.000000e+000 7.873612e+000
      endloop
   endfacet
   facet normal 0.000000e+000 -1.000000e+000 0.000000e+000
      outer loop
         vertex 2.855575e-001 0.000000e+000 7.291641e+000
         vertex 1.705828e+000 0.000000e+000 7.873612e+000
         vertex 4.624994e-001 0.000000e+000 7.763487e+000
      endloop
   endfacet
   facet normal 0.000000e+000 -1.000000e+000 0.000000e+000
      outer loop
         vertex 4.624994e-001 0.000000e+000 7.763487e+000
         vertex 1.705828e+000 0.000000e+000 7.873612e+000
         vertex 5.912031e-001 0.000000e+000 8.002059e+000
      endloop
   endfacet
   facet normal 0.000000e+000 -1.000000e+000 0.000000e+000
      outer loop
         vertex 1.646577e+000 0.000000e+000 8.109708e+000
         vertex 1.482866e+000 0.000000e+000 8.289845e+000
         vertex 1.705828e+000 0.000000e+000 7.873612e+000
      endloop
   endfacet
   facet normal 0.000000e+000 -1.000000e+000 0.000000e+000
      outer loop
         vertex 1.705828e+000 0.000000e+000 7.873612e+000
         vertex 1.482866e+000 0.000000e+000 8.289845e+000
         vertex 1.253495e+000 0.000000e+000 8.371335e+000
      endloop
   endfacet
   facet normal 0.000000e+000 -1.000000e+000 0.000000e+000
      outer loop
         vertex 1.705828e+000 0.000000e+000 7.873612e+000
         vertex 1.253495e+000 0.000000e+000 8.371335e+000
         vertex 1.012828e+000 0.000000e+000 8.334862e+000
      endloop
   endfacet
   facet normal 4.676938e-001 0.000000e+000 8.838905e-001
      outer loop
         vertex 1.099883e+001 1.000000e+000 8.334862e+000
         vertex 1.099883e+001 0.000000e+000 8.334862e+000
         vertex 1.123240e+001 0.000000e+000 8.197299e+000
      endloop
   endfacet
   facet normal 5.461960e-001 0.000000e+000 8.376574e-001
      outer loop
         vertex 1.099883e+001 1.000000e+000 8.334862e+000
         vertex 1.123240e+001 0.000000e+000 8.197299e+000
         vertex 1.123240e+001 1.000000e+000 8.197299e+000
      endloop
   endfacet
   facet normal 6.878994e-001 0.000000e+000 7.258061e-001
      outer loop
         vertex 1.123240e+001 1.000000e+000 8.197299e+000
         vertex 1.123240e+001 0.000000e+000 8.197299e+000
         vertex 1.142045e+001 0.000000e+000 8.002059e+000
      endloop
   endfacet
   facet normal 7.511005e-001 0.000000e+000 6.601880e-001
      outer loop
         vertex 1.123240e+001 1.000000e+000 8.197299e+000
         vertex 1.142045e+001 0.000000e+000 8.002059e+000
         vertex 1.142045e+001 1.000000e+000 8.002059e+000
      endloop
   endfacet
   facet normal 8.575572e-001 0.000000e+000 5.143885e-001
      outer loop
         vertex 1.142045e+001 1.000000e+000 8.002059e+000
         vertex 1.142045e+001 0.000000e+000 8.002059e+000
         vertex 1.154916e+001 0.000000e+000 7.763487e+000
      endloop
   endfacet
   facet normal 9.008130e-001 0.000000e+000 4.342071e-001
      outer loop
         vertex 1.142045e+001 1.000000e+000 8.002059e+000
         vertex 1.154916e+001 0.000000e+000 7.763487e+000
         vertex 1.154916e+001 1.000000e+000 7.763487e+000
      endloop
   endfacet
   facet normal 9.909893e-001 0.000000e+000 1.339410e-001
      outer loop
         vertex 1.198377e+001 1.000000e+000 1.905790e+000
         vertex 1.198377e+001 0.000000e+000 1.905790e+000
         vertex 1.200910e+001 0.000000e+000 1.599876e+000
      endloop
   endfacet
   facet normal 9.995229e-001 0.000000e+000 3.088535e-002
      outer loop
         vertex 1.198377e+001 1.000000e+000 1.905790e+000
         vertex 1.200910e+001 0.000000e+000 1.599876e+000
         vertex 1.200910e+001 1.000000e+000 1.599876e+000
      endloop
   endfacet
   facet normal 9.849290e-001 0.000000e+000 -1.729592e-001
      outer loop
         vertex 1.200910e+001 1.000000e+000 1.599876e+000
         vertex 1.200910e+001 0.000000e+000 1.599876e+000
         vertex 1.194045e+001 0.000000e+000 1.300693e+000
      endloop
   endfacet
   facet normal 9.618014e-001 0.000000e+000 -2.737482e-001
      outer loop
         vertex 1.200910e+001 1.000000e+000 1.599876e+000
         vertex 1.194045e+001 0.000000e+000 1.300693e+000
         vertex 1.194045e+001 1.000000e+000 1.300693e+000
      endloop
   endfacet
   facet normal 8.860642e-001 0.000000e+000 -4.635625e-001
      outer loop
         vertex 1.194045e+001 1.000000e+000 1.300693e+000
         vertex 1.194045e+001 0.000000e+000 1.300693e+000
         vertex 1.178428e+001 0.000000e+000 1.036428e+000
      endloop
   endfacet
   facet normal 8.334546e-001 0.000000e+000 -5.525879e-001
      outer loop
         vertex 1.194045e+001 1.000000e+000 1.300693e+000
         vertex 1.178428e+001 0.000000e+000 1.036428e+000
         vertex 1.178428e+001 1.000000e+000 1.036428e+000
      endloop
   endfacet
   facet normal 7.037104e-001 0.000000e+000 -7.104868e-001
      outer loop
         vertex 1.178428e+001 1.000000e+000 1.036428e+000
         vertex 1.178428e+001 0.000000e+000 1.036428e+000
         vertex 1.155532e+001 0.000000e+000 8.319802e-001
      endloop
   endfacet
   facet normal 6.265759e-001 0.000000e+000 -7.793604e-001
      outer loop
         vertex 1.178428e+001 1.000000e+000 1.036428e+000
         vertex 1.155532e+001 0.000000e+000 8.319802e-001
         vertex 1.155532e+001 1.000000e+000 8.319802e-001
      endloop
   endfacet
   facet normal 4.550499e-001 0.000000e+000 -8.904659e-001
      outer loop
         vertex 1.155532e+001 1.000000e+000 8.319802e-001
         vertex 1.155532e+001 0.000000e+000 8.319802e-001
         vertex 1.127512e+001 0.000000e+000 7.066187e-001
      endloop
   endfacet
   facet normal 3.606585e-001 0.000000e+000 -9.326980e-001
      outer loop
         vertex 1.155532e+001 1.000000e+000 8.319802e-001
         vertex 1.127512e+001 0.000000e+000 7.066187e-001
         vertex 1.127512e+001 1.000000e+000 7.066187e-001
      endloop
   endfacet
   facet normal -9.868379e-001 0.000000e+000 1.617124e-001
      outer loop
         vertex 1.030583e+001 1.000000e+000 7.873612e+000
         vertex 1.030583e+001 0.000000e+000 7.873612e+000
         vertex 1.036508e+001 0.000000e+000 8.109708e+000
      endloop
   endfacet
   facet normal -9.462539e-001 0.000000e+000 3.234248e-001
      outer loop
         vertex 1.030583e+001 1.000000e+000 7.873612e+000
         vertex 1.036508e+001 0.000000e+000 8.109708e+000
         vertex 1.036508e+001 1.000000e+000 8.109708e+000
      endloop
   endfacet
   facet normal -7.935363e-001 0.000000e+000 6.085229e-001
      outer loop
         vertex 1.036508e+001 1.000000e+000 8.109708e+000
         vertex 1.036508e+001 0.000000e+000 8.109708e+000
         vertex 1.052879e+001 0.000000e+000 8.289845e+000
      endloop
   endfacet
   facet normal -6.814028e-001 0.000000e+000 7.319086e-001
      outer loop
         vertex 1.036508e+001 1.000000e+000 8.109708e+000
         vertex 1.052879e+001 0.000000e+000 8.289845e+000
         vertex 1.052879e+001 1.000000e+000 8.289845e+000
      endloop
   endfacet
   facet normal -4.121625e-001 0.000000e+000 9.111103e-001
      outer loop
         vertex 1.052879e+001 1.000000e+000 8.289845e+000
         vertex 1.052879e+001 0.000000e+000 8.289845e+000
         vertex 1.075816e+001 0.000000e+000 8.371335e+000
      endloop
   endfacet
   facet normal -2.550557e-001 0.000000e+000 9.669264e-001
      outer loop
         vertex 1.052879e+001 1.000000e+000 8.289845e+000
         vertex 1.075816e+001 0.000000e+000 8.371335e+000
         vertex 1.075816e+001 1.000000e+000 8.371335e+000
      endloop
   endfacet
   facet normal 6.689601e-002 0.000000e+000 9.977599e-001
      outer loop
         vertex 1.075816e+001 1.000000e+000 8.371335e+000
         vertex 1.075816e+001 0.000000e+000 8.371335e+000
         vertex 1.099883e+001 0.000000e+000 8.334862e+000
      endloop
   endfacet
   facet normal 2.317409e-001 0.000000e+000 9.727775e-001
      outer loop
         vertex 1.075816e+001 1.000000e+000 8.371335e+000
         vertex 1.099883e+001 0.000000e+000 8.334862e+000
         vertex 1.099883e+001 1.000000e+000 8.334862e+000
      endloop
   endfacet
   facet normal 9.519049e-001 0.000000e+000 -3.063938e-001
      outer loop
         vertex 1.152293e+001 0.000000e+000 6.720426e+000
         vertex 1.150393e+001 0.000000e+000 6.644360e+000
         vertex 1.152293e+001 1.000000e+000 6.720426e+000
      endloop
   endfacet
   facet normal 9.841395e-001 0.000000e+000 -1.773963e-001
      outer loop
         vertex 1.152293e+001 1.000000e+000 6.720426e+000
         vertex 1.150393e+001 0.000000e+000 6.644360e+000
         vertex 1.150393e+001 1.000000e+000 6.644360e+000
      endloop
   endfacet
   facet normal 9.937718e-001 0.000000e+000 1.114341e-001
      outer loop
         vertex 1.131942e+001 1.000000e+000 2.769651e+000
         vertex 1.131942e+001 0.000000e+000 2.769651e+000
         vertex 1.133776e+001 0.000000e+000 2.675965e+000
      endloop
   endfacet
   facet normal 9.623861e-001 0.000000e+000 2.716852e-001
      outer loop
         vertex 1.131942e+001 1.000000e+000 2.769651e+000
         vertex 1.133776e+001 0.000000e+000 2.675965e+000
         vertex 1.133776e+001 1.000000e+000 2.675965e+000
      endloop
   endfacet
   facet normal 8.289089e-001 0.000000e+000 5.593836e-001
      outer loop
         vertex 1.133776e+001 1.000000e+000 2.675965e+000
         vertex 1.133776e+001 0.000000e+000 2.675965e+000
         vertex 1.139745e+001 0.000000e+000 2.601458e+000
      endloop
   endfacet
   facet normal 7.268174e-001 0.000000e+000 6.868308e-001
      outer loop
         vertex 1.133776e+001 1.000000e+000 2.675965e+000
         vertex 1.139745e+001 0.000000e+000 2.601458e+000
         vertex 1.139745e+001 1.000000e+000 2.601458e+000
      endloop
   endfacet
   facet normal 4.751886e-001 0.000000e+000 8.798839e-001
      outer loop
         vertex 1.139745e+001 1.000000e+000 2.601458e+000
         vertex 1.139745e+001 0.000000e+000 2.601458e+000
         vertex 1.148487e+001 0.000000e+000 2.563104e+000
      endloop
   endfacet
   facet normal 3.256515e-001 0.000000e+000 9.454899e-001
      outer loop
         vertex 1.139745e+001 1.000000e+000 2.601458e+000
         vertex 1.148487e+001 0.000000e+000 2.563104e+000
         vertex 1.148487e+001 1.000000e+000 2.563104e+000
      endloop
   endfacet
   facet normal 1.320206e-002 0.000000e+000 9.999129e-001
      outer loop
         vertex 1.148487e+001 1.000000e+000 2.563104e+000
         vertex 1.148487e+001 0.000000e+000 2.563104e+000
         vertex 1.158011e+001 0.000000e+000 2.569642e+000
      endloop
   endfacet
   facet normal -1.497103e-001 0.000000e+000 9.887299e-001
      outer loop
         vertex 1.148487e+001 1.000000e+000 2.563104e+000
         vertex 1.158011e+001 0.000000e+000 2.569642e+000
         vertex 1.158011e+001 1.000000e+000 2.569642e+000
      endloop
   endfacet
   facet normal -1.736444e-001 0.000000e+000 9.848084e-001
      outer loop
         vertex 1.160106e+001 1.000000e+000 2.576355e+000
         vertex 1.160106e+001 0.000000e+000 2.576355e+000
         vertex 1.168227e+001 0.000000e+000 2.584925e+000
      endloop
   endfacet
   facet normal -3.571219e-002 0.000000e+000 9.993621e-001
      outer loop
         vertex 1.160106e+001 1.000000e+000 2.576355e+000
         vertex 1.168227e+001 0.000000e+000 2.584925e+000
         vertex 1.168227e+001 1.000000e+000 2.584925e+000
      endloop
   endfacet
   facet normal 2.344716e-001 0.000000e+000 9.721230e-001
      outer loop
         vertex 1.168227e+001 1.000000e+000 2.584925e+000
         vertex 1.168227e+001 0.000000e+000 2.584925e+000
         vertex 1.176014e+001 0.000000e+000 2.560318e+000
      endloop
   endfacet
   facet normal 3.667231e-001 0.000000e+000 9.303301e-001
      outer loop
         vertex 1.168227e+001 1.000000e+000 2.584925e+000
         vertex 1.176014e+001 0.000000e+000 2.560318e+000
         vertex 1.176014e+001 1.000000e+000 2.560318e+000
      endloop
   endfacet
   facet normal 6.034966e-001 0.000000e+000 7.973656e-001
      outer loop
         vertex 1.176014e+001 1.000000e+000 2.560318e+000
         vertex 1.176014e+001 0.000000e+000 2.560318e+000
         vertex 1.182168e+001 0.000000e+000 2.506638e+000
      endloop
   endfacet
   facet normal 7.080185e-001 0.000000e+000 7.061939e-001
      outer loop
         vertex 1.176014e+001 1.000000e+000 2.560318e+000
         vertex 1.182168e+001 0.000000e+000 2.506638e+000
         vertex 1.182168e+001 1.000000e+000 2.506638e+000
      endloop
   endfacet
   facet normal 8.719068e-001 0.000000e+000 4.896719e-001
      outer loop
         vertex 1.182168e+001 1.000000e+000 2.506638e+000
         vertex 1.182168e+001 0.000000e+000 2.506638e+000
         vertex 1.185663e+001 0.000000e+000 2.432834e+000
      endloop
   endfacet
   facet normal 9.312733e-001 0.000000e+000 3.643214e-001
      outer loop
         vertex 1.182168e+001 1.000000e+000 2.506638e+000
         vertex 1.185663e+001 0.000000e+000 2.432834e+000
         vertex 1.185663e+001 1.000000e+000 2.432834e+000
      endloop
   endfacet
   facet normal 9.745513e-001 0.000000e+000 2.241648e-001
      outer loop
         vertex 1.172610e+001 1.000000e+000 7.291641e+000
         vertex 1.172610e+001 0.000000e+000 7.291641e+000
         vertex 1.173866e+001 0.000000e+000 7.213079e+000
      endloop
   endfacet
   facet normal 9.958633e-001 0.000000e+000 9.086489e-002
      outer loop
         vertex 1.172610e+001 1.000000e+000 7.291641e+000
         vertex 1.173866e+001 0.000000e+000 7.213079e+000
         vertex 1.173866e+001 1.000000e+000 7.213079e+000
      endloop
   endfacet
   facet normal 9.848344e-001 0.000000e+000 -1.734966e-001
      outer loop
         vertex 1.173866e+001 1.000000e+000 7.213079e+000
         vertex 1.173866e+001 0.000000e+000 7.213079e+000
         vertex 1.171960e+001 0.000000e+000 7.135838e+000
      endloop
   endfacet
   facet normal 9.524937e-001 0.000000e+000 -3.045582e-001
      outer loop
         vertex 1.173866e+001 1.000000e+000 7.213079e+000
         vertex 1.171960e+001 0.000000e+000 7.135838e+000
         vertex 1.171960e+001 1.000000e+000 7.135838e+000
      endloop
   endfacet
   facet normal 1.000000e+000 0.000000e+000 1.398971e-016
      outer loop
         vertex 1.705828e+000 1.000000e+000 2.212364e+000
         vertex 1.705828e+000 1.000000e+000 7.873612e+000
         vertex 1.705828e+000 0.000000e+000 2.212364e+000
      endloop
   endfacet
   facet normal 1.000000e+000 0.000000e+000 1.398971e-016
      outer loop
         vertex 1.705828e+000 0.000000e+000 2.212364e+000
         vertex 1.705828e+000 1.000000e+000 7.873612e+000
         vertex 1.705828e+000 0.000000e+000 7.873612e+000
      endloop
   endfacet
   facet normal -9.363292e-001 0.000000e+000 3.511235e-001
      outer loop
         vertex 4.624994e-001 1.000000e+000 7.763487e+000
         vertex 2.855575e-001 1.000000e+000 7.291641e+000
         vertex 4.624994e-001 -4.336809e-016 7.763487e+000
      endloop
   endfacet
   facet normal -9.363292e-001 0.000000e+000 3.511235e-001
      outer loop
         vertex 4.624994e-001 -4.336809e-016 7.763487e+000
         vertex 2.855575e-001 1.000000e+000 7.291641e+000
         vertex 2.855575e-001 -4.336809e-016 7.291641e+000
      endloop
   endfacet
   facet normal -9.038298e-001 0.000000e+000 -4.278921e-001
      outer loop
         vertex 2.920572e-001 1.000000e+000 7.135838e+000
         vertex 4.887222e-001 1.000000e+000 6.720426e+000
         vertex 2.920572e-001 -4.336809e-016 7.135838e+000
      endloop
   endfacet
   facet normal -9.038298e-001 0.000000e+000 -4.278921e-001
      outer loop
         vertex 2.920572e-001 -4.336809e-016 7.135838e+000
         vertex 4.887222e-001 1.000000e+000 6.720426e+000
         vertex 4.887222e-001 -4.336809e-016 6.720426e+000
      endloop
   endfacet
   facet normal -9.988682e-001 0.000000e+000 -4.756515e-002
      outer loop
         vertex 6.922399e-001 0.000000e+000 2.769651e+000
         vertex 5.077296e-001 0.000000e+000 6.644360e+000
         vertex 6.922399e-001 1.000000e+000 2.769651e+000
      endloop
   endfacet
   facet normal -9.988682e-001 0.000000e+000 -4.756515e-002
      outer loop
         vertex 6.922399e-001 1.000000e+000 2.769651e+000
         vertex 5.077296e-001 0.000000e+000 6.644360e+000
         vertex 5.077296e-001 1.000000e+000 6.644360e+000
      endloop
   endfacet
   facet normal 3.049873e-001 0.000000e+000 9.523565e-001
      outer loop
         vertex 4.315451e-001 1.000000e+000 2.569642e+000
         vertex 4.105959e-001 1.000000e+000 2.576355e+000
         vertex 4.315451e-001 0.000000e+000 2.569642e+000
      endloop
   endfacet
   facet normal 3.053689e-001 0.000000e+000 9.522341e-001
      outer loop
         vertex 4.315451e-001 0.000000e+000 2.569642e+000
         vertex 4.105959e-001 1.000000e+000 2.576355e+000
         vertex 4.105959e-001 0.000000e+000 2.576355e+000
      endloop
   endfacet
   facet normal -9.721156e-001 0.000000e+000 2.345024e-001
      outer loop
         vertex 2.788473e-002 -4.336809e-016 1.905790e+000
         vertex 1.550228e-001 -4.336809e-016 2.432834e+000
         vertex 2.788473e-002 1.000000e+000 1.905790e+000
      endloop
   endfacet
   facet normal -9.721156e-001 0.000000e+000 2.345024e-001
      outer loop
         vertex 2.788473e-002 1.000000e+000 1.905790e+000
         vertex 1.550228e-001 -4.336809e-016 2.432834e+000
         vertex 1.550228e-001 1.000000e+000 2.432834e+000
      endloop
   endfacet
   facet normal -9.008130e-001 0.000000e+000 4.342071e-001
      outer loop
         vertex 4.624994e-001 1.000000e+000 7.763487e+000
         vertex 4.624994e-001 0.000000e+000 7.763487e+000
         vertex 5.912031e-001 0.000000e+000 8.002059e+000
      endloop
   endfacet
   facet normal -8.575572e-001 0.000000e+000 5.143885e-001
      outer loop
         vertex 4.624994e-001 1.000000e+000 7.763487e+000
         vertex 5.912031e-001 0.000000e+000 8.002059e+000
         vertex 5.912031e-001 1.000000e+000 8.002059e+000
      endloop
   endfacet
   facet normal -7.511005e-001 0.000000e+000 6.601880e-001
      outer loop
         vertex 5.912031e-001 1.000000e+000 8.002059e+000
         vertex 5.912031e-001 0.000000e+000 8.002059e+000
         vertex 7.792516e-001 0.000000e+000 8.197299e+000
      endloop
   endfacet
   facet normal -6.878994e-001 0.000000e+000 7.258061e-001
      outer loop
         vertex 5.912031e-001 1.000000e+000 8.002059e+000
         vertex 7.792516e-001 0.000000e+000 8.197299e+000
         vertex 7.792516e-001 1.000000e+000 8.197299e+000
      endloop
   endfacet
   facet normal -5.461960e-001 0.000000e+000 8.376574e-001
      outer loop
         vertex 7.792516e-001 1.000000e+000 8.197299e+000
         vertex 7.792516e-001 0.000000e+000 8.197299e+000
         vertex 1.012828e+000 0.000000e+000 8.334862e+000
      endloop
   endfacet
   facet normal -4.676938e-001 0.000000e+000 8.838906e-001
      outer loop
         vertex 7.792516e-001 1.000000e+000 8.197299e+000
         vertex 1.012828e+000 0.000000e+000 8.334862e+000
         vertex 1.012828e+000 1.000000e+000 8.334862e+000
      endloop
   endfacet
   facet normal -3.606585e-001 0.000000e+000 -9.326980e-001
      outer loop
         vertex 7.365355e-001 1.000000e+000 7.066187e-001
         vertex 7.365355e-001 0.000000e+000 7.066187e-001
         vertex 4.563415e-001 0.000000e+000 8.319802e-001
      endloop
   endfacet
   facet normal -4.550499e-001 0.000000e+000 -8.904659e-001
      outer loop
         vertex 7.365355e-001 1.000000e+000 7.066187e-001
         vertex 4.563415e-001 0.000000e+000 8.319802e-001
         vertex 4.563415e-001 1.000000e+000 8.319802e-001
      endloop
   endfacet
   facet normal -6.265759e-001 0.000000e+000 -7.793604e-001
      outer loop
         vertex 4.563415e-001 1.000000e+000 8.319802e-001
         vertex 4.563415e-001 0.000000e+000 8.319802e-001
         vertex 2.273736e-001 0.000000e+000 1.036428e+000
      endloop
   endfacet
   facet normal -7.037104e-001 0.000000e+000 -7.104869e-001
      outer loop
         vertex 4.563415e-001 1.000000e+000 8.319802e-001
         vertex 2.273736e-001 0.000000e+000 1.036428e+000
         vertex 2.273736e-001 1.000000e+000 1.036428e+000
      endloop
   endfacet
   facet normal -8.334546e-001 0.000000e+000 -5.525879e-001
      outer loop
         vertex 2.273736e-001 1.000000e+000 1.036428e+000
         vertex 2.273736e-001 0.000000e+000 1.036428e+000
         vertex 7.120566e-002 0.000000e+000 1.300693e+000
      endloop
   endfacet
   facet normal -8.860642e-001 0.000000e+000 -4.635625e-001
      outer loop
         vertex 2.273736e-001 1.000000e+000 1.036428e+000
         vertex 7.120566e-002 0.000000e+000 1.300693e+000
         vertex 7.120566e-002 1.000000e+000 1.300693e+000
      endloop
   endfacet
   facet normal -9.618014e-001 0.000000e+000 -2.737482e-001
      outer loop
         vertex 7.120566e-002 1.000000e+000 1.300693e+000
         vertex 7.120566e-002 0.000000e+000 1.300693e+000
         vertex 2.553221e-003 0.000000e+000 1.599876e+000
      endloop
   endfacet
   facet normal -9.849290e-001 0.000000e+000 -1.729592e-001
      outer loop
         vertex 7.120566e-002 1.000000e+000 1.300693e+000
         vertex 2.553221e-003 0.000000e+000 1.599876e+000
         vertex 2.553221e-003 1.000000e+000 1.599876e+000
      endloop
   endfacet
   facet normal -9.995229e-001 0.000000e+000 3.088535e-002
      outer loop
         vertex 2.553221e-003 1.000000e+000 1.599876e+000
         vertex 2.553221e-003 0.000000e+000 1.599876e+000
         vertex 2.788473e-002 0.000000e+000 1.905790e+000
      endloop
   endfacet
   facet normal -9.909893e-001 0.000000e+000 1.339410e-001
      outer loop
         vertex 2.553221e-003 1.000000e+000 1.599876e+000
         vertex 2.788473e-002 0.000000e+000 1.905790e+000
         vertex 2.788473e-002 1.000000e+000 1.905790e+000
      endloop
   endfacet
   facet normal -2.317409e-001 0.000000e+000 9.727775e-001
      outer loop
         vertex 1.012828e+000 1.000000e+000 8.334862e+000
         vertex 1.012828e+000 0.000000e+000 8.334862e+000
         vertex 1.253495e+000 0.000000e+000 8.371335e+000
      endloop
   endfacet
   facet normal -6.689602e-002 0.000000e+000 9.977599e-001
      outer loop
         vertex 1.012828e+000 1.000000e+000 8.334862e+000
         vertex 1.253495e+000 0.000000e+000 8.371335e+000
         vertex 1.253495e+000 1.000000e+000 8.371335e+000
      endloop
   endfacet
   facet normal 2.550557e-001 0.000000e+000 9.669264e-001
      outer loop
         vertex 1.253495e+000 1.000000e+000 8.371335e+000
         vertex 1.253495e+000 0.000000e+000 8.371335e+000
         vertex 1.482866e+000 0.000000e+000 8.289845e+000
      endloop
   endfacet
   facet normal 4.121624e-001 0.000000e+000 9.111105e-001
      outer loop
         vertex 1.253495e+000 1.000000e+000 8.371335e+000
         vertex 1.482866e+000 0.000000e+000 8.289845e+000
         vertex 1.482866e+000 1.000000e+000 8.289845e+000
      endloop
   endfacet
   facet normal 6.814027e-001 0.000000e+000 7.319087e-001
      outer loop
         vertex 1.482866e+000 1.000000e+000 8.289845e+000
         vertex 1.482866e+000 0.000000e+000 8.289845e+000
         vertex 1.646577e+000 0.000000e+000 8.109708e+000
      endloop
   endfacet
   facet normal 7.935363e-001 0.000000e+000 6.085229e-001
      outer loop
         vertex 1.482866e+000 1.000000e+000 8.289845e+000
         vertex 1.646577e+000 0.000000e+000 8.109708e+000
         vertex 1.646577e+000 1.000000e+000 8.109708e+000
      endloop
   endfacet
   facet normal 9.462539e-001 0.000000e+000 3.234248e-001
      outer loop
         vertex 1.646577e+000 1.000000e+000 8.109708e+000
         vertex 1.646577e+000 0.000000e+000 8.109708e+000
         vertex 1.705828e+000 0.000000e+000 7.873612e+000
      endloop
   endfacet
   facet normal 9.868379e-001 0.000000e+000 1.617124e-001
      outer loop
         vertex 1.646577e+000 1.000000e+000 8.109708e+000
         vertex 1.705828e+000 0.000000e+000 7.873612e+000
         vertex 1.705828e+000 1.000000e+000 7.873612e+000
      endloop
   endfacet
   facet normal -9.841395e-001 0.000000e+000 -1.773963e-001
      outer loop
         vertex 5.077296e-001 0.000000e+000 6.644360e+000
         vertex 4.887222e-001 0.000000e+000 6.720426e+000
         vertex 5.077296e-001 1.000000e+000 6.644360e+000
      endloop
   endfacet
   facet normal -9.519049e-001 0.000000e+000 -3.063938e-001
      outer loop
         vertex 5.077296e-001 1.000000e+000 6.644360e+000
         vertex 4.887222e-001 0.000000e+000 6.720426e+000
         vertex 4.887222e-001 1.000000e+000 6.720426e+000
      endloop
   endfacet
   facet normal 1.497103e-001 0.000000e+000 9.887299e-001
      outer loop
         vertex 4.315451e-001 1.000000e+000 2.569642e+000
         vertex 4.315451e-001 0.000000e+000 2.569642e+000
         vertex 5.267859e-001 0.000000e+000 2.563104e+000
      endloop
   endfacet
   facet normal -1.320206e-002 0.000000e+000 9.999129e-001
      outer loop
         vertex 4.315451e-001 1.000000e+000 2.569642e+000
         vertex 5.267859e-001 0.000000e+000 2.563104e+000
         vertex 5.267859e-001 1.000000e+000 2.563104e+000
      endloop
   endfacet
   facet normal -3.256515e-001 0.000000e+000 9.454899e-001
      outer loop
         vertex 5.267859e-001 1.000000e+000 2.563104e+000
         vertex 5.267859e-001 0.000000e+000 2.563104e+000
         vertex 6.142073e-001 0.000000e+000 2.601458e+000
      endloop
   endfacet
   facet normal -4.751886e-001 0.000000e+000 8.798839e-001
      outer loop
         vertex 5.267859e-001 1.000000e+000 2.563104e+000
         vertex 6.142073e-001 0.000000e+000 2.601458e+000
         vertex 6.142073e-001 1.000000e+000 2.601458e+000
      endloop
   endfacet
   facet normal -7.268174e-001 0.000000e+000 6.868308e-001
      outer loop
         vertex 6.142073e-001 1.000000e+000 2.601458e+000
         vertex 6.142073e-001 0.000000e+000 2.601458e+000
         vertex 6.738915e-001 0.000000e+000 2.675965e+000
      endloop
   endfacet
   facet normal -8.289089e-001 0.000000e+000 5.593836e-001
      outer loop
         vertex 6.142073e-001 1.000000e+000 2.601458e+000
         vertex 6.738915e-001 0.000000e+000 2.675965e+000
         vertex 6.738915e-001 1.000000e+000 2.675965e+000
      endloop
   endfacet
   facet normal -9.623861e-001 0.000000e+000 2.716852e-001
      outer loop
         vertex 6.738915e-001 1.000000e+000 2.675965e+000
         vertex 6.738915e-001 0.000000e+000 2.675965e+000
         vertex 6.922399e-001 0.000000e+000 2.769651e+000
      endloop
   endfacet
   facet normal -9.937718e-001 0.000000e+000 1.114341e-001
      outer loop
         vertex 6.738915e-001 1.000000e+000 2.675965e+000
         vertex 6.922399e-001 0.000000e+000 2.769651e+000
         vertex 6.922399e-001 1.000000e+000 2.769651e+000
      endloop
   endfacet
   facet normal -9.312733e-001 0.000000e+000 3.643214e-001
      outer loop
         vertex 1.550228e-001 1.000000e+000 2.432834e+000
         vertex 1.550228e-001 0.000000e+000 2.432834e+000
         vertex 1.899768e-001 0.000000e+000 2.506638e+000
      endloop
   endfacet
   facet normal -8.719069e-001 0.000000e+000 4.896718e-001
      outer loop
         vertex 1.550228e-001 1.000000e+000 2.432834e+000
         vertex 1.899768e-001 0.000000e+000 2.506638e+000
         vertex 1.899768e-001 1.000000e+000 2.506638e+000
      endloop
   endfacet
   facet normal -7.080185e-001 0.000000e+000 7.061939e-001
      outer loop
         vertex 1.899768e-001 1.000000e+000 2.506638e+000
         vertex 1.899768e-001 0.000000e+000 2.506638e+000
         vertex 2.515172e-001 0.000000e+000 2.560318e+000
      endloop
   endfacet
   facet normal -6.034966e-001 0.000000e+000 7.973656e-001
      outer loop
         vertex 1.899768e-001 1.000000e+000 2.506638e+000
         vertex 2.515172e-001 0.000000e+000 2.560318e+000
         vertex 2.515172e-001 1.000000e+000 2.560318e+000
      endloop
   endfacet
   facet normal -3.667231e-001 0.000000e+000 9.303301e-001
      outer loop
         vertex 2.515172e-001 1.000000e+000 2.560318e+000
         vertex 2.515172e-001 0.000000e+000 2.560318e+000
         vertex 3.293841e-001 0.000000e+000 2.584925e+000
      endloop
   endfacet
   facet normal -2.344716e-001 0.000000e+000 9.721230e-001
      outer loop
         vertex 2.515172e-001 1.000000e+000 2.560318e+000
         vertex 3.293841e-001 0.000000e+000 2.584925e+000
         vertex 3.293841e-001 1.000000e+000 2.584925e+000
      endloop
   endfacet
   facet normal 3.571219e-002 0.000000e+000 9.993621e-001
      outer loop
         vertex 3.293841e-001 1.000000e+000 2.584925e+000
         vertex 3.293841e-001 0.000000e+000 2.584925e+000
         vertex 4.105959e-001 0.000000e+000 2.576355e+000
      endloop
   endfacet
   facet normal 1.736444e-001 0.000000e+000 9.848084e-001
      outer loop
         vertex 3.293841e-001 1.000000e+000 2.584925e+000
         vertex 4.105959e-001 0.000000e+000 2.576355e+000
         vertex 4.105959e-001 1.000000e+000 2.576355e+000
      endloop
   endfacet
   facet normal -9.524937e-001 0.000000e+000 -3.045582e-001
      outer loop
         vertex 2.920572e-001 1.000000e+000 7.135838e+000
         vertex 2.920572e-001 0.000000e+000 7.135838e+000
         vertex 2.729967e-001 0.000000e+000 7.213079e+000
      endloop
   endfacet
   facet normal -9.848344e-001 0.000000e+000 -1.734966e-001
      outer loop
         vertex 2.920572e-001 1.000000e+000 7.135838e+000
         vertex 2.729967e-001 0.000000e+000 7.213079e+000
         vertex 2.729967e-001 1.000000e+000 7.213079e+000
      endloop
   endfacet
   facet normal -9.958633e-001 0.000000e+000 9.086489e-002
      outer loop
         vertex 2.729967e-001 1.000000e+000 7.213079e+000
         vertex 2.729967e-001 0.000000e+000 7.213079e+000
         vertex 2.855575e-001 0.000000e+000 7.291641e+000
      endloop
   endfacet
   facet normal -9.745513e-001 0.000000e+000 2.241648e-001
      outer loop
         vertex 2.729967e-001 1.000000e+000 7.213079e+000
         vertex 2.855575e-001 0.000000e+000 7.291641e+000
         vertex 2.855575e-001 1.000000e+000 7.291641e+000
      endloop
   endfacet
endsolid